<?xml version="1.0" encoding="utf-8"?>
<!-- Generator: Adobe Illustrator 16.0.0, SVG Export Plug-In . SVG Version: 6.00 Build 0)  -->
<!DOCTYPE svg PUBLIC "-//W3C//DTD SVG 1.1//EN" "http://www.w3.org/Graphics/SVG/1.1/DTD/svg11.dtd">
<svg version="1.1" id="Layer_1" xmlns="http://www.w3.org/2000/svg" xmlns:xlink="http://www.w3.org/1999/xlink" x="0px" y="0px"
	 width="139px" height="16px" viewBox="0 0 139 16" enable-background="new 0 0 139 16" xml:space="preserve">
<g>
	<path fill="#374436" d="M0,6.737h3.168v-3.36H4v3.36h3.168v0.832H4v3.44H3.168v-3.44H0V6.737z"/>
	<path fill="#374436" d="M8.897,4.305h-0.4c-0.043-0.224-0.086-0.464-0.128-0.72c-0.043-0.256-0.08-0.512-0.112-0.768
		C8.225,2.561,8.201,2.315,8.186,2.081C8.169,1.846,8.161,1.633,8.161,1.44h6.624v0.464c-0.533,0.949-0.976,1.824-1.328,2.624
		c-0.352,0.8-0.653,1.608-0.904,2.424c-0.25,0.816-0.467,1.68-0.647,2.592c-0.182,0.912-0.363,1.943-0.544,3.096H9.761
		c0.395-1.557,0.886-3.104,1.473-4.64c0.586-1.536,1.264-3.083,2.031-4.64l0.48-0.768l-0.832,0.08H9.521L8.897,4.305z"/>
	<path fill="#374436" d="M25.137,16c-0.544-0.395-1.051-0.826-1.52-1.295c-0.47-0.47-0.878-0.998-1.225-1.584
		c-0.347-0.587-0.618-1.238-0.815-1.953c-0.197-0.714-0.296-1.52-0.296-2.416c0-0.875,0.101-1.664,0.304-2.368
		c0.202-0.704,0.479-1.35,0.832-1.936c0.352-0.586,0.766-1.128,1.24-1.624s0.983-0.968,1.527-1.416l0.336,0.288
		c-0.427,0.458-0.815,0.928-1.168,1.408c-0.352,0.48-0.653,1.003-0.903,1.568c-0.251,0.565-0.446,1.181-0.584,1.848
		c-0.139,0.667-0.208,1.411-0.208,2.232c0,0.8,0.074,1.539,0.224,2.216s0.354,1.301,0.616,1.872c0.261,0.57,0.565,1.091,0.912,1.56
		c0.347,0.47,0.717,0.896,1.111,1.28L25.137,16z"/>
	<path fill="#374436" d="M26.646,10.129c0-0.363,0.064-0.707,0.192-1.032c0.129-0.325,0.309-0.619,0.539-0.88
		s0.503-0.494,0.819-0.696c0.316-0.202,0.662-0.368,1.037-0.496c-0.301-0.16-0.582-0.336-0.845-0.528s-0.491-0.411-0.685-0.656
		c-0.192-0.246-0.346-0.515-0.458-0.808s-0.169-0.622-0.169-0.984c0-0.416,0.075-0.795,0.226-1.136
		c0.149-0.341,0.361-0.634,0.635-0.88c0.273-0.245,0.605-0.438,0.997-0.576c0.392-0.138,0.829-0.208,1.312-0.208
		c0.943,0,1.678,0.238,2.203,0.712c0.525,0.475,0.788,1.085,0.788,1.832c0,0.619-0.204,1.16-0.611,1.624
		c-0.407,0.464-0.938,0.846-1.593,1.144c0.375,0.192,0.724,0.406,1.045,0.64c0.321,0.235,0.598,0.491,0.828,0.768
		s0.412,0.579,0.546,0.904c0.134,0.325,0.201,0.674,0.201,1.047c0,0.396-0.078,0.769-0.233,1.121
		c-0.155,0.352-0.386,0.661-0.69,0.928c-0.306,0.267-0.681,0.478-1.126,0.632c-0.444,0.154-0.956,0.231-1.534,0.231
		c-0.59,0-1.099-0.074-1.527-0.224s-0.785-0.349-1.069-0.6c-0.283-0.251-0.492-0.538-0.627-0.864
		C26.713,10.819,26.646,10.48,26.646,10.129z M32.214,10.212c0-0.364-0.071-0.694-0.215-0.99c-0.143-0.296-0.334-0.558-0.572-0.789
		c-0.239-0.231-0.515-0.443-0.828-0.637c-0.313-0.193-0.634-0.37-0.963-0.531c-0.312,0.183-0.57,0.387-0.774,0.612
		c-0.204,0.226-0.368,0.459-0.492,0.701s-0.213,0.481-0.267,0.717c-0.054,0.236-0.08,0.456-0.08,0.661
		c0,0.257,0.04,0.518,0.12,0.781c0.08,0.262,0.205,0.496,0.376,0.699c0.17,0.205,0.392,0.371,0.664,0.5
		c0.271,0.129,0.604,0.193,1,0.193c0.33,0,0.624-0.057,0.88-0.17c0.256-0.112,0.469-0.26,0.64-0.442s0.299-0.39,0.384-0.62
		C32.172,10.666,32.214,10.438,32.214,10.212z M28.454,3.841c0,0.331,0.062,0.619,0.186,0.864c0.124,0.246,0.288,0.467,0.492,0.664
		s0.438,0.376,0.702,0.536c0.264,0.16,0.535,0.31,0.814,0.448c0.453-0.362,0.771-0.725,0.955-1.088
		c0.183-0.362,0.274-0.763,0.274-1.2c0-0.661-0.147-1.17-0.444-1.528C31.138,2.179,30.731,2,30.215,2
		c-0.291,0-0.544,0.054-0.76,0.16c-0.215,0.107-0.398,0.246-0.549,0.416c-0.15,0.171-0.264,0.365-0.339,0.584
		S28.454,3.606,28.454,3.841z"/>
	<path fill="#374436" d="M35.527,7.041c0-1.92,0.32-3.365,0.96-4.336c0.641-0.971,1.558-1.456,2.753-1.456
		c1.29,0,2.234,0.478,2.831,1.432c0.598,0.955,0.896,2.408,0.896,4.36c0,1.92-0.322,3.366-0.968,4.336s-1.598,1.455-2.856,1.455
		c-0.65,0-1.205-0.131-1.664-0.392c-0.458-0.261-0.832-0.64-1.12-1.136s-0.498-1.102-0.632-1.816
		C35.595,8.774,35.527,7.958,35.527,7.041z M37.063,7.057c0,0.766,0.037,1.462,0.112,2.09c0.074,0.627,0.194,1.166,0.36,1.619
		c0.165,0.451,0.378,0.8,0.64,1.045c0.262,0.244,0.578,0.366,0.952,0.366c0.843,0,1.438-0.415,1.784-1.244
		c0.346-0.829,0.52-2.122,0.52-3.876c0-0.766-0.032-1.462-0.096-2.089c-0.064-0.627-0.182-1.165-0.353-1.611
		c-0.17-0.447-0.397-0.792-0.68-1.037c-0.282-0.245-0.638-0.367-1.063-0.367c-0.801,0-1.363,0.412-1.688,1.236
		C37.227,4.013,37.063,5.302,37.063,7.057z"/>
	<path fill="#374436" d="M44.951,7.041c0-1.92,0.32-3.365,0.96-4.336c0.641-0.971,1.558-1.456,2.753-1.456
		c1.29,0,2.234,0.478,2.831,1.432c0.598,0.955,0.896,2.408,0.896,4.36c0,1.92-0.322,3.366-0.968,4.336s-1.598,1.455-2.856,1.455
		c-0.65,0-1.205-0.131-1.664-0.392c-0.458-0.261-0.832-0.64-1.12-1.136s-0.498-1.102-0.632-1.816
		C45.019,8.774,44.951,7.958,44.951,7.041z M46.487,7.057c0,0.766,0.037,1.462,0.112,2.09c0.074,0.627,0.194,1.166,0.36,1.619
		c0.165,0.451,0.378,0.8,0.64,1.045c0.262,0.244,0.578,0.366,0.952,0.366c0.843,0,1.438-0.415,1.784-1.244
		c0.346-0.829,0.52-2.122,0.52-3.876c0-0.766-0.032-1.462-0.096-2.089c-0.064-0.627-0.182-1.165-0.353-1.611
		c-0.17-0.447-0.397-0.792-0.68-1.037c-0.282-0.245-0.638-0.367-1.063-0.367c-0.801,0-1.363,0.412-1.688,1.236
		C46.65,4.013,46.487,5.302,46.487,7.057z"/>
	<path fill="#374436" d="M53.317,15.681c0.395-0.384,0.766-0.819,1.112-1.304c0.347-0.486,0.648-1.024,0.904-1.616
		c0.256-0.593,0.458-1.234,0.607-1.929c0.149-0.693,0.225-1.439,0.225-2.239c0-0.821-0.07-1.558-0.208-2.208
		c-0.139-0.651-0.331-1.248-0.576-1.792c-0.246-0.544-0.544-1.051-0.896-1.52c-0.352-0.469-0.741-0.928-1.168-1.376l0.336-0.288
		c0.544,0.416,1.054,0.859,1.528,1.328s0.888,0.992,1.24,1.568c0.352,0.576,0.629,1.216,0.832,1.92
		c0.202,0.704,0.304,1.494,0.304,2.368c0,0.886-0.096,1.693-0.288,2.424c-0.191,0.731-0.459,1.397-0.8,2
		c-0.342,0.603-0.75,1.151-1.224,1.647c-0.476,0.496-0.99,0.941-1.544,1.336L53.317,15.681z"/>
	<path fill="#374436" d="M65.317,4.561h-0.4C64.8,4.251,64.68,3.889,64.558,3.473c-0.123-0.416-0.227-0.811-0.313-1.184
		c0.374-0.32,0.821-0.573,1.345-0.76c0.522-0.187,1.088-0.28,1.695-0.28c0.533,0,0.992,0.075,1.376,0.224
		c0.385,0.149,0.701,0.352,0.952,0.608s0.435,0.552,0.552,0.888s0.177,0.686,0.177,1.048c0,0.598-0.139,1.211-0.416,1.84
		c-0.277,0.63-0.622,1.24-1.032,1.832c-0.411,0.592-0.856,1.149-1.336,1.673c-0.48,0.521-0.923,0.98-1.328,1.375l-0.672,0.625v0.063
		l0.896-0.097h2.752l0.784-1.791h0.4c0.021,0.234,0.042,0.49,0.063,0.768s0.04,0.558,0.057,0.84c0.016,0.283,0.029,0.555,0.04,0.816
		c0.01,0.262,0.016,0.488,0.016,0.68h-6.608v-0.512c0.235-0.246,0.521-0.545,0.856-0.896s0.686-0.741,1.048-1.168
		c0.362-0.426,0.723-0.88,1.08-1.36s0.675-0.968,0.952-1.464s0.504-0.989,0.68-1.48s0.265-0.96,0.265-1.408
		c0-0.309-0.04-0.603-0.12-0.88s-0.2-0.52-0.36-0.728s-0.354-0.371-0.584-0.488c-0.229-0.118-0.493-0.176-0.792-0.176
		c-0.224,0-0.422,0.016-0.592,0.048c-0.171,0.032-0.357,0.08-0.561,0.144L65.317,4.561z"/>
	<path fill="#374436" d="M78.804,0.561h0.399c-0.011,0.16-0.023,0.339-0.04,0.536c-0.016,0.197-0.04,0.395-0.072,0.592
		c-0.031,0.198-0.063,0.387-0.096,0.568c-0.032,0.181-0.069,0.331-0.112,0.448h-3.936l-0.384,3.088h1.04
		c0.533,0,1.021,0.072,1.464,0.216c0.442,0.144,0.821,0.357,1.136,0.64c0.314,0.283,0.561,0.627,0.736,1.032s0.264,0.87,0.264,1.392
		c0,0.619-0.106,1.163-0.32,1.633c-0.213,0.469-0.495,0.861-0.848,1.176c-0.352,0.314-0.752,0.552-1.2,0.712
		c-0.447,0.159-0.912,0.239-1.392,0.239c-0.214,0-0.443-0.018-0.688-0.055c-0.245-0.038-0.487-0.094-0.728-0.169
		c-0.24-0.074-0.467-0.162-0.68-0.264c-0.214-0.102-0.396-0.21-0.544-0.328l0.464-1.44h0.319c0.064,0.075,0.145,0.172,0.24,0.289
		s0.194,0.239,0.296,0.367c0.102,0.129,0.203,0.256,0.304,0.385c0.102,0.127,0.195,0.239,0.28,0.336
		c0.106,0.021,0.205,0.047,0.296,0.08c0.091,0.031,0.232,0.047,0.424,0.047c0.353,0,0.675-0.068,0.969-0.207
		c0.293-0.139,0.546-0.328,0.76-0.568c0.213-0.24,0.379-0.52,0.496-0.84s0.176-0.666,0.176-1.04c0-0.427-0.08-0.797-0.24-1.112
		c-0.16-0.314-0.379-0.57-0.655-0.768c-0.278-0.197-0.601-0.344-0.969-0.44c-0.367-0.096-0.755-0.138-1.159-0.128l-1.137,0.016
		l0.641-5.552h3.808L78.804,0.561z"/>
	<path fill="#374436" d="M81.291,7.041c0-1.92,0.32-3.365,0.96-4.336c0.641-0.971,1.558-1.456,2.753-1.456
		c1.29,0,2.234,0.478,2.831,1.432c0.598,0.955,0.896,2.408,0.896,4.36c0,1.92-0.322,3.366-0.968,4.336s-1.598,1.455-2.856,1.455
		c-0.65,0-1.205-0.131-1.664-0.392c-0.458-0.261-0.832-0.64-1.12-1.136s-0.498-1.102-0.632-1.816
		C81.358,8.774,81.291,7.958,81.291,7.041z M82.827,7.057c0,0.766,0.037,1.462,0.112,2.09c0.074,0.627,0.194,1.166,0.36,1.619
		c0.165,0.451,0.378,0.8,0.64,1.045c0.262,0.244,0.578,0.366,0.952,0.366c0.843,0,1.438-0.415,1.784-1.244
		c0.346-0.829,0.52-2.122,0.52-3.876c0-0.766-0.032-1.462-0.096-2.089c-0.064-0.627-0.182-1.165-0.353-1.611
		c-0.17-0.447-0.397-0.792-0.68-1.037c-0.282-0.245-0.638-0.367-1.063-0.367c-0.801,0-1.363,0.412-1.688,1.236
		C82.99,4.013,82.827,5.302,82.827,7.057z"/>
	<path fill="#374436" d="M91.199,7.648h4.513v0.992h-4.513V7.648z"/>
	<path fill="#374436" d="M105.563,9.265c0,0.491-0.086,0.952-0.256,1.384c-0.171,0.432-0.411,0.811-0.721,1.137
		c-0.31,0.325-0.683,0.581-1.12,0.768s-0.922,0.279-1.455,0.279c-0.598,0-1.126-0.104-1.584-0.312
		c-0.459-0.208-0.846-0.499-1.16-0.872c-0.315-0.373-0.553-0.816-0.712-1.328c-0.16-0.512-0.24-1.072-0.24-1.68
		c0-1.002,0.165-1.922,0.496-2.76c0.33-0.837,0.771-1.579,1.319-2.224c0.55-0.646,1.179-1.181,1.889-1.608
		c0.709-0.427,1.447-0.726,2.216-0.896l0.176,0.48c-0.565,0.203-1.102,0.478-1.607,0.824c-0.507,0.347-0.961,0.755-1.36,1.224
		c-0.4,0.469-0.733,0.995-1,1.576c-0.267,0.581-0.432,1.208-0.496,1.88c0.171-0.288,0.475-0.552,0.912-0.792
		c0.438-0.24,0.944-0.36,1.52-0.36c0.459,0,0.886,0.075,1.28,0.224c0.395,0.149,0.73,0.363,1.008,0.64s0.496,0.619,0.656,1.024
		C105.483,8.278,105.563,8.742,105.563,9.265z M104.027,9.408c0-0.762-0.185-1.384-0.552-1.867
		c-0.368-0.483-0.883-0.725-1.544-0.725c-0.502,0-0.931,0.126-1.288,0.378c-0.357,0.252-0.611,0.534-0.761,0.845
		c-0.021,0.15-0.031,0.327-0.031,0.531s0,0.364,0,0.483c0,0.343,0.045,0.694,0.136,1.054s0.229,0.689,0.416,0.989
		c0.187,0.301,0.421,0.549,0.704,0.741c0.282,0.193,0.61,0.29,0.983,0.29c0.342,0,0.635-0.078,0.881-0.233
		c0.245-0.155,0.444-0.362,0.6-0.62c0.154-0.258,0.27-0.55,0.344-0.877C103.99,10.07,104.027,9.74,104.027,9.408z"/>
	<path fill="#374436" d="M107.704,4.305h-0.4c-0.043-0.224-0.086-0.464-0.128-0.72c-0.043-0.256-0.08-0.512-0.112-0.768
		c-0.032-0.256-0.056-0.501-0.071-0.736c-0.017-0.234-0.024-0.448-0.024-0.64h6.624v0.464c-0.533,0.949-0.976,1.824-1.328,2.624
		c-0.352,0.8-0.653,1.608-0.904,2.424c-0.25,0.816-0.467,1.68-0.647,2.592c-0.182,0.912-0.363,1.943-0.544,3.096h-1.601
		c0.395-1.557,0.886-3.104,1.473-4.64c0.586-1.536,1.264-3.083,2.031-4.64l0.48-0.768l-0.832,0.08h-3.392L107.704,4.305z"/>
	<path fill="#374436" d="M114.996,7.648h4.513v0.992h-4.513V7.648z"/>
	<path fill="#374436" d="M122.159,4.561h-0.4c-0.117-0.309-0.237-0.672-0.359-1.088c-0.123-0.416-0.227-0.811-0.313-1.184
		c0.374-0.32,0.821-0.573,1.345-0.76c0.522-0.187,1.088-0.28,1.695-0.28c0.533,0,0.992,0.075,1.376,0.224
		c0.385,0.149,0.701,0.352,0.952,0.608s0.435,0.552,0.552,0.888s0.177,0.686,0.177,1.048c0,0.598-0.139,1.211-0.416,1.84
		c-0.277,0.63-0.622,1.24-1.032,1.832c-0.411,0.592-0.856,1.149-1.336,1.673c-0.48,0.521-0.923,0.98-1.328,1.375l-0.672,0.625v0.063
		l0.896-0.097h2.752l0.784-1.791h0.4c0.021,0.234,0.042,0.49,0.063,0.768s0.04,0.558,0.057,0.84c0.016,0.283,0.029,0.555,0.04,0.816
		c0.01,0.262,0.016,0.488,0.016,0.68h-6.608v-0.512c0.235-0.246,0.521-0.545,0.856-0.896s0.686-0.741,1.048-1.168
		c0.362-0.426,0.723-0.88,1.08-1.36s0.675-0.968,0.952-1.464s0.504-0.989,0.68-1.48s0.265-0.96,0.265-1.408
		c0-0.309-0.04-0.603-0.12-0.88s-0.2-0.52-0.36-0.728s-0.354-0.371-0.584-0.488c-0.229-0.118-0.493-0.176-0.792-0.176
		c-0.224,0-0.422,0.016-0.592,0.048c-0.171,0.032-0.357,0.08-0.561,0.144L122.159,4.561z"/>
	<path fill="#374436" d="M130.252,4.305h-0.4c-0.043-0.224-0.086-0.464-0.128-0.72c-0.043-0.256-0.08-0.512-0.112-0.768
		c-0.032-0.256-0.056-0.501-0.071-0.736c-0.017-0.234-0.024-0.448-0.024-0.64h6.624v0.464c-0.533,0.949-0.976,1.824-1.328,2.624
		c-0.352,0.8-0.653,1.608-0.904,2.424c-0.25,0.816-0.467,1.68-0.647,2.592c-0.182,0.912-0.363,1.943-0.544,3.096h-1.601
		c0.395-1.557,0.886-3.104,1.473-4.64c0.586-1.536,1.264-3.083,2.031-4.64l0.48-0.768l-0.832,0.08h-3.392L130.252,4.305z"/>
</g>
</svg>
