<?xml version="1.0" encoding="utf-8"?>
<!-- Generator: Adobe Illustrator 16.0.0, SVG Export Plug-In . SVG Version: 6.00 Build 0)  -->
<!DOCTYPE svg PUBLIC "-//W3C//DTD SVG 1.1//EN" "http://www.w3.org/Graphics/SVG/1.1/DTD/svg11.dtd">
<svg version="1.1" id="Layer_1" xmlns="http://www.w3.org/2000/svg" xmlns:xlink="http://www.w3.org/1999/xlink" x="0px" y="0px"
	 width="139px" height="16px" viewBox="0 0 139 16" enable-background="new 0 0 139 16" xml:space="preserve">
<g>
	<path fill="#B9976C" d="M0,6.736h3.168v-3.36H4v3.36h3.168v0.832H4v3.44H3.168v-3.44H0V6.736z"/>
	<path fill="#B9976C" d="M8.866,4.304h-0.4C8.423,4.08,8.38,3.84,8.338,3.584c-0.043-0.256-0.08-0.512-0.112-0.768
		C8.193,2.56,8.17,2.315,8.154,2.08C8.138,1.846,8.13,1.632,8.13,1.44h6.624v0.464c-0.533,0.949-0.976,1.824-1.328,2.624
		c-0.352,0.8-0.653,1.608-0.904,2.424c-0.25,0.816-0.467,1.68-0.647,2.592c-0.182,0.912-0.363,1.944-0.544,3.097H9.729
		c0.395-1.558,0.886-3.104,1.473-4.641c0.586-1.536,1.264-3.083,2.031-4.64l0.48-0.768l-0.832,0.08H9.49L8.866,4.304z"/>
	<path fill="#B9976C" d="M25.041,16c-0.544-0.395-1.051-0.827-1.52-1.296c-0.47-0.47-0.878-0.998-1.225-1.584
		c-0.347-0.586-0.618-1.237-0.815-1.952c-0.197-0.714-0.296-1.521-0.296-2.416c0-0.875,0.101-1.664,0.304-2.368
		c0.202-0.704,0.479-1.35,0.832-1.936c0.352-0.586,0.766-1.128,1.24-1.624c0.474-0.496,0.983-0.968,1.527-1.416l0.336,0.288
		c-0.427,0.458-0.815,0.928-1.168,1.408c-0.352,0.48-0.653,1.003-0.903,1.568c-0.251,0.565-0.446,1.181-0.584,1.848
		c-0.139,0.667-0.208,1.411-0.208,2.232c0,0.801,0.074,1.539,0.224,2.216c0.149,0.679,0.354,1.302,0.616,1.873
		c0.261,0.57,0.565,1.091,0.912,1.56c0.347,0.471,0.717,0.896,1.111,1.281L25.041,16z"/>
	<path fill="#B9976C" d="M26.519,10.128c0-0.362,0.064-0.706,0.192-1.03c0.129-0.326,0.309-0.62,0.539-0.881
		c0.23-0.261,0.503-0.494,0.819-0.696s0.662-0.368,1.037-0.496c-0.301-0.16-0.582-0.336-0.845-0.528
		c-0.263-0.192-0.491-0.411-0.685-0.656c-0.192-0.246-0.346-0.515-0.458-0.808C27.006,4.74,26.95,4.411,26.95,4.048
		c0-0.416,0.075-0.795,0.226-1.136c0.149-0.341,0.361-0.634,0.635-0.88c0.273-0.245,0.605-0.438,0.997-0.576
		s0.829-0.208,1.312-0.208c0.943,0,1.678,0.238,2.203,0.712c0.525,0.475,0.788,1.085,0.788,1.832c0,0.619-0.204,1.16-0.611,1.624
		s-0.938,0.846-1.593,1.144c0.375,0.192,0.724,0.406,1.045,0.64c0.321,0.235,0.598,0.491,0.828,0.768
		c0.23,0.277,0.412,0.579,0.546,0.904c0.134,0.325,0.201,0.675,0.201,1.048c0,0.396-0.078,0.77-0.233,1.12
		c-0.155,0.351-0.386,0.662-0.69,0.928c-0.306,0.269-0.681,0.479-1.126,0.634c-0.444,0.153-0.956,0.23-1.534,0.23
		c-0.59,0-1.099-0.075-1.527-0.225c-0.429-0.148-0.785-0.35-1.069-0.6c-0.283-0.251-0.492-0.539-0.627-0.865
		C26.585,10.818,26.519,10.479,26.519,10.128z M32.086,10.212c0-0.364-0.071-0.694-0.215-0.989c-0.143-0.297-0.334-0.56-0.572-0.791
		c-0.239-0.231-0.515-0.443-0.828-0.637c-0.313-0.193-0.634-0.37-0.963-0.531c-0.312,0.183-0.57,0.387-0.774,0.612
		c-0.204,0.226-0.368,0.459-0.492,0.701c-0.124,0.241-0.213,0.481-0.267,0.717c-0.054,0.235-0.08,0.456-0.08,0.66
		c0,0.258,0.04,0.519,0.12,0.78c0.08,0.264,0.205,0.496,0.376,0.701c0.17,0.203,0.392,0.369,0.664,0.498
		c0.271,0.129,0.604,0.193,1,0.193c0.33,0,0.624-0.057,0.88-0.169s0.469-0.261,0.64-0.442c0.171-0.184,0.299-0.39,0.384-0.621
		C32.044,10.665,32.086,10.438,32.086,10.212z M28.326,3.84c0,0.331,0.062,0.619,0.186,0.864c0.124,0.246,0.288,0.467,0.492,0.664
		c0.204,0.197,0.438,0.376,0.702,0.536c0.264,0.16,0.535,0.31,0.814,0.448c0.453-0.362,0.771-0.725,0.955-1.088
		c0.183-0.362,0.274-0.763,0.274-1.2c0-0.661-0.147-1.17-0.444-1.528C31.01,2.179,30.604,2,30.087,2c-0.291,0-0.544,0.054-0.76,0.16
		c-0.215,0.107-0.398,0.246-0.549,0.416c-0.15,0.171-0.264,0.365-0.339,0.584C28.364,3.379,28.326,3.605,28.326,3.84z"/>
	<path fill="#B9976C" d="M40.721,12.641h-4.672v-0.463c0.267-0.117,0.536-0.223,0.808-0.314c0.272-0.09,0.547-0.168,0.824-0.231
		V3.776l0.064-0.944c-0.299,0.118-0.608,0.2-0.928,0.248c-0.32,0.048-0.651,0.067-0.992,0.056l-0.08-0.384
		c0.49-0.16,0.997-0.36,1.52-0.6c0.522-0.24,1.008-0.542,1.456-0.904h0.4v10.384c0.267,0.063,0.533,0.142,0.8,0.231
		c0.267,0.091,0.533,0.195,0.8,0.314V12.641z"/>
	<path fill="#B9976C" d="M44.51,4.56h-0.4c-0.117-0.309-0.237-0.672-0.359-1.088c-0.123-0.416-0.227-0.811-0.313-1.184
		c0.374-0.32,0.821-0.573,1.345-0.76c0.522-0.187,1.088-0.28,1.695-0.28c0.533,0,0.992,0.075,1.376,0.224
		c0.385,0.149,0.701,0.352,0.952,0.608s0.435,0.552,0.552,0.888c0.117,0.336,0.177,0.686,0.177,1.048
		c0,0.598-0.139,1.211-0.416,1.84c-0.277,0.63-0.622,1.24-1.032,1.832c-0.412,0.592-0.858,1.149-1.337,1.671
		c-0.48,0.522-0.923,0.981-1.328,1.377l-0.672,0.623v0.064l0.896-0.097h2.752l0.784-1.792h0.4c0.021,0.234,0.042,0.49,0.063,0.768
		c0.021,0.278,0.04,0.559,0.057,0.84c0.016,0.283,0.029,0.555,0.04,0.816c0.01,0.262,0.016,0.488,0.016,0.68H43.15v-0.512
		c0.235-0.245,0.521-0.544,0.856-0.896c0.336-0.352,0.686-0.739,1.048-1.168c0.362-0.426,0.723-0.879,1.08-1.358
		c0.357-0.48,0.675-0.968,0.952-1.464c0.277-0.496,0.504-0.989,0.68-1.479c0.176-0.491,0.264-0.96,0.264-1.408
		c0-0.309-0.04-0.603-0.12-0.88c-0.08-0.277-0.2-0.52-0.36-0.728c-0.16-0.208-0.354-0.371-0.584-0.488
		c-0.229-0.118-0.493-0.176-0.792-0.176c-0.224,0-0.422,0.016-0.592,0.048c-0.171,0.032-0.357,0.08-0.561,0.144L44.51,4.56z"/>
	<path fill="#B9976C" d="M51.172,15.682c0.395-0.386,0.766-0.82,1.112-1.306c0.346-0.485,0.648-1.022,0.904-1.614
		c0.256-0.594,0.458-1.234,0.607-1.93c0.149-0.693,0.225-1.439,0.225-2.24c0-0.821-0.07-1.558-0.208-2.208
		c-0.139-0.651-0.331-1.248-0.576-1.792c-0.246-0.544-0.544-1.051-0.896-1.52c-0.352-0.469-0.741-0.928-1.168-1.376l0.336-0.288
		c0.544,0.416,1.054,0.859,1.528,1.328c0.474,0.469,0.888,0.992,1.24,1.568c0.352,0.576,0.629,1.216,0.832,1.92
		c0.202,0.704,0.304,1.494,0.304,2.368c0,0.885-0.096,1.694-0.288,2.424c-0.191,0.73-0.459,1.396-0.8,2
		c-0.342,0.603-0.75,1.151-1.224,1.647c-0.476,0.496-0.99,0.94-1.544,1.336L51.172,15.682z"/>
	<path fill="#B9976C" d="M69.012,9.266c0,0.489-0.086,0.95-0.256,1.383c-0.171,0.433-0.411,0.812-0.721,1.137
		c-0.31,0.326-0.683,0.582-1.12,0.768c-0.438,0.188-0.922,0.28-1.455,0.28c-0.598,0-1.126-0.104-1.584-0.312
		c-0.459-0.209-0.846-0.5-1.16-0.873c-0.315-0.373-0.553-0.815-0.712-1.328c-0.16-0.512-0.24-1.071-0.24-1.68
		c0-1.001,0.165-1.921,0.496-2.76c0.33-0.837,0.771-1.579,1.319-2.224c0.55-0.646,1.179-1.181,1.889-1.608
		c0.709-0.427,1.447-0.726,2.216-0.896l0.176,0.48c-0.565,0.203-1.102,0.478-1.607,0.824c-0.507,0.347-0.961,0.755-1.36,1.224
		c-0.4,0.469-0.733,0.995-1,1.576s-0.432,1.208-0.496,1.88c0.171-0.288,0.475-0.552,0.912-0.792c0.438-0.24,0.944-0.36,1.52-0.36
		c0.459,0,0.886,0.075,1.28,0.224c0.395,0.149,0.73,0.363,1.008,0.64c0.278,0.277,0.496,0.619,0.656,1.024
		C68.932,8.278,69.012,8.742,69.012,9.266z M67.476,9.407c0-0.761-0.185-1.384-0.552-1.867c-0.368-0.483-0.883-0.725-1.544-0.725
		c-0.502,0-0.931,0.126-1.288,0.378c-0.357,0.252-0.611,0.534-0.761,0.845C63.31,8.19,63.3,8.367,63.3,8.57c0,0.205,0,0.365,0,0.484
		c0,0.344,0.045,0.694,0.136,1.055c0.091,0.359,0.229,0.688,0.416,0.988c0.187,0.301,0.421,0.549,0.704,0.741
		c0.282,0.193,0.61,0.289,0.983,0.289c0.342,0,0.635-0.078,0.881-0.231c0.245-0.156,0.444-0.363,0.6-0.621
		c0.154-0.258,0.27-0.549,0.344-0.877C67.438,10.07,67.476,9.74,67.476,9.407z"/>
	<path fill="#B9976C" d="M70.691,7.04c0-1.92,0.32-3.365,0.961-4.336c0.641-0.971,1.558-1.456,2.752-1.456
		c1.291,0,2.234,0.478,2.832,1.432c0.598,0.955,0.896,2.408,0.896,4.36c0,1.92-0.321,3.364-0.968,4.336s-1.598,1.456-2.855,1.456
		c-0.65,0-1.205-0.131-1.664-0.393s-0.832-0.641-1.121-1.137c-0.287-0.496-0.498-1.101-0.631-1.814
		C70.76,8.773,70.691,7.958,70.691,7.04z M72.229,7.056c0,0.766,0.037,1.461,0.112,2.088c0.074,0.627,0.194,1.168,0.36,1.619
		c0.165,0.452,0.378,0.801,0.64,1.045c0.263,0.244,0.578,0.367,0.952,0.367c0.843,0,1.438-0.414,1.784-1.244
		c0.346-0.83,0.521-2.121,0.521-3.875c0-0.766-0.033-1.462-0.097-2.089c-0.063-0.627-0.183-1.165-0.353-1.611
		c-0.17-0.447-0.397-0.792-0.681-1.037c-0.282-0.245-0.638-0.367-1.063-0.367c-0.801,0-1.362,0.412-1.688,1.236
		C72.393,4.012,72.229,5.302,72.229,7.056z"/>
	<path fill="#B9976C" d="M80.084,7.04c0-1.92,0.32-3.365,0.96-4.336c0.642-0.971,1.558-1.456,2.753-1.456
		c1.29,0,2.234,0.478,2.831,1.432c0.599,0.955,0.896,2.408,0.896,4.36c0,1.92-0.321,3.364-0.967,4.336
		c-0.646,0.972-1.599,1.456-2.856,1.456c-0.65,0-1.205-0.131-1.664-0.393c-0.458-0.262-0.832-0.641-1.12-1.137
		s-0.498-1.101-0.632-1.814C80.15,8.773,80.084,7.958,80.084,7.04z M81.62,7.056c0,0.766,0.037,1.461,0.112,2.088
		c0.074,0.627,0.193,1.168,0.359,1.619c0.165,0.452,0.379,0.801,0.641,1.045s0.578,0.367,0.951,0.367
		c0.844,0,1.438-0.414,1.784-1.244c0.347-0.83,0.521-2.121,0.521-3.875c0-0.766-0.032-1.462-0.096-2.089
		c-0.064-0.627-0.183-1.165-0.354-1.611c-0.17-0.447-0.396-0.792-0.68-1.037c-0.282-0.245-0.639-0.367-1.063-0.367
		c-0.801,0-1.362,0.412-1.688,1.236C81.783,4.012,81.62,5.302,81.62,7.056z"/>
	<path fill="#B9976C" d="M89.961,7.648h4.514v0.993h-4.514V7.648z"/>
	<path fill="#B9976C" d="M103.836,12.641h-4.128v-0.463c0.522-0.183,1.015-0.312,1.474-0.386V9.553h-4.881V9.186l5.897-7.938h0.422
		v7.473h2.032v0.832h-2.032v2.239c0.416,0.086,0.821,0.214,1.216,0.386V12.641z M101.182,4.608l0.176-1.152h-0.049l-0.623,1.152
		l-2.688,3.696l-0.64,0.528l1.136-0.111h2.688V4.608z"/>
	<path fill="#B9976C" d="M111.939,0.56h0.398c-0.011,0.16-0.023,0.339-0.04,0.536c-0.016,0.197-0.04,0.395-0.071,0.592
		c-0.031,0.198-0.063,0.387-0.097,0.568c-0.032,0.181-0.069,0.331-0.112,0.448h-3.936l-0.384,3.088h1.04
		c0.533,0,1.021,0.072,1.464,0.216c0.442,0.144,0.821,0.357,1.136,0.64s0.561,0.627,0.736,1.032c0.175,0.405,0.264,0.87,0.264,1.392
		c0,0.617-0.105,1.162-0.32,1.632c-0.213,0.47-0.494,0.86-0.848,1.176c-0.352,0.313-0.752,0.554-1.199,0.713
		s-0.912,0.239-1.393,0.239c-0.214,0-0.443-0.02-0.688-0.057c-0.246-0.037-0.488-0.094-0.729-0.168
		c-0.241-0.073-0.467-0.162-0.68-0.264c-0.215-0.102-0.396-0.211-0.545-0.328l0.465-1.439h0.318c0.064,0.074,0.146,0.171,0.24,0.287
		c0.096,0.117,0.193,0.24,0.296,0.367c0.103,0.129,0.203,0.258,0.304,0.386c0.103,0.128,0.195,0.239,0.28,0.336
		c0.106,0.021,0.205,0.048,0.296,0.08c0.092,0.03,0.232,0.048,0.424,0.048c0.354,0,0.676-0.068,0.969-0.208
		c0.294-0.14,0.547-0.328,0.761-0.567c0.213-0.24,0.379-0.521,0.496-0.841c0.116-0.319,0.176-0.666,0.176-1.039
		c0-0.427-0.08-0.798-0.239-1.113c-0.16-0.314-0.38-0.57-0.656-0.768c-0.277-0.197-0.601-0.344-0.969-0.44
		c-0.367-0.096-0.755-0.138-1.158-0.128l-1.137,0.016l0.641-5.552h3.808L111.939,0.56z"/>
	<path fill="#B9976C" d="M115.018,7.648h4.512v0.993h-4.512V7.648z"/>
	<path fill="#B9976C" d="M129.35,9.266c0,0.489-0.086,0.95-0.257,1.383s-0.411,0.812-0.721,1.137
		c-0.31,0.326-0.683,0.582-1.12,0.768c-0.438,0.188-0.922,0.28-1.455,0.28c-0.598,0-1.126-0.104-1.584-0.312
		c-0.459-0.209-0.846-0.5-1.16-0.873s-0.553-0.815-0.712-1.328c-0.159-0.512-0.239-1.071-0.239-1.68c0-1.001,0.164-1.921,0.496-2.76
		c0.329-0.837,0.771-1.579,1.318-2.224c0.55-0.646,1.18-1.181,1.889-1.608c0.709-0.427,1.447-0.726,2.217-0.896l0.176,0.48
		c-0.565,0.203-1.102,0.478-1.607,0.824c-0.507,0.347-0.961,0.755-1.359,1.224c-0.4,0.469-0.733,0.995-1,1.576
		c-0.268,0.581-0.433,1.208-0.496,1.88c0.17-0.288,0.475-0.552,0.912-0.792c0.438-0.24,0.943-0.36,1.52-0.36
		c0.459,0,0.886,0.075,1.279,0.224c0.396,0.149,0.73,0.363,1.009,0.64c0.278,0.277,0.496,0.619,0.655,1.024
		C129.27,8.278,129.35,8.742,129.35,9.266z M127.813,9.407c0-0.761-0.185-1.384-0.551-1.867c-0.369-0.483-0.884-0.725-1.545-0.725
		c-0.502,0-0.931,0.126-1.287,0.378c-0.357,0.252-0.611,0.534-0.762,0.845c-0.021,0.15-0.031,0.327-0.031,0.53
		c0,0.205,0,0.365,0,0.484c0,0.344,0.045,0.694,0.137,1.055c0.091,0.359,0.229,0.688,0.416,0.988
		c0.187,0.301,0.42,0.549,0.703,0.741c0.282,0.192,0.61,0.289,0.983,0.289c0.342,0,0.636-0.078,0.881-0.231
		c0.245-0.156,0.444-0.363,0.601-0.621c0.154-0.258,0.27-0.549,0.344-0.877C127.775,10.07,127.813,9.74,127.813,9.407z"/>
	<path fill="#B9976C" d="M131.029,7.04c0-1.92,0.32-3.365,0.96-4.336c0.641-0.971,1.558-1.456,2.753-1.456
		c1.29,0,2.234,0.478,2.831,1.432c0.598,0.955,0.896,2.408,0.896,4.36c0,1.92-0.322,3.364-0.968,4.336s-1.599,1.456-2.856,1.456
		c-0.649,0-1.205-0.131-1.664-0.393c-0.457-0.262-0.832-0.641-1.119-1.137c-0.288-0.496-0.498-1.101-0.633-1.814
		C131.098,8.773,131.029,7.958,131.029,7.04z M132.564,7.056c0,0.766,0.037,1.461,0.112,2.088c0.074,0.627,0.194,1.168,0.36,1.619
		c0.165,0.452,0.378,0.801,0.64,1.045c0.263,0.244,0.578,0.367,0.952,0.367c0.844,0,1.438-0.414,1.784-1.244
		c0.346-0.83,0.521-2.121,0.521-3.875c0-0.766-0.033-1.462-0.097-2.089c-0.063-0.627-0.183-1.165-0.353-1.611
		c-0.17-0.447-0.397-0.792-0.68-1.037c-0.283-0.245-0.639-0.367-1.063-0.367c-0.802,0-1.363,0.412-1.688,1.236
		C132.729,4.012,132.564,5.302,132.564,7.056z"/>
</g>
</svg>
